id_evento,id_subtipo,evento,subtipo
7,702,gol,
6,602,tarjeta_amarilla,
2,202,falta,
5,520,corner,en_corto
1,101,centro,centro
5,501,corner,centro
7,703,gol,tiro
2,206,falta,empujo
3,316,tiro_fuera,libre_directo
4,403,tiro_a_porteria,tiro
4,404,tiro_a_porteria,lejano
3,311,tiro_fuera,rechazado
2,222,falta,agarron_de_camiseta
3,304,tiro_fuera,lejano
3,307,tiro_fuera,cabezazo
4,407,tiro_a_porteria,cabezazo
3,303,tiro_fuera,tiro
2,210,falta,desde_detras
8,801,centro_de_saque_de_banda,centro
2,212,falta,falta_seria
6,619,tarjeta_amarilla,falta_grave
7,704,gol,lejano
2,213,falta,mano
7,716,gol,libre_directo
3,318,tiro_fuera,volea
4,411,tiro_a_porteria,rechazado
11,1107,gol_anulado,cabezazo
7,707,gol,cabezazo
3,329,tiro_fuera,larguero
6,622,tarjeta_amarilla,agarron_de_camiseta
4,418,tiro_a_porteria,volea
6,632,tarjeta_amarilla,abuso_verbal
2,228,falta,penalty
12,1246,segunda_tarjeta_amarilla_al_jugador,violencia
3,334,tiro_fuera,chilena
7,718,gol,volea
6,638,tarjeta_amarilla,tirarse
3,330,tiro_fuera,poste
6,613,tarjeta_amarilla,mano
12,1202,segunda_tarjeta_amarilla_al_jugador,
10,1002,penalty_parado,
4,416,tiro_a_porteria,libre_directo
9,919,tarjeta_roja,falta_grave
5,502,corner,
11,1103,gol_anulado,tiro
7,739,gol,perdida_de_balon
4,434,tiro_a_porteria,chilena
3,302,tiro_fuera,
6,646,tarjeta_amarilla,violencia
9,902,tarjeta_roja,
7,743,gol,desviado
6,606,tarjeta_amarilla,empujo
6,650,tarjeta_amarilla,tiempo_perdido
12,1219,segunda_tarjeta_amarilla_al_jugador,falta_grave
6,633,tarjeta_amarilla,cortar_jugada_de_peligro
6,648,tarjeta_amarilla,tirar_el_balon_lejos
2,238,falta,tirarse
7,734,gol,chilena
9,933,tarjeta_roja,cortar_jugada_de_peligro
12,1213,segunda_tarjeta_amarilla_al_jugador,mano
12,1238,segunda_tarjeta_amarilla_al_jugador,tirarse
9,946,tarjeta_roja,violencia
10,1049,penalty_parado,parado
10,1047,penalty_parado,parado_y_rechazado_dentro_del_campo
11,1102,gol_anulado,
4,402,tiro_a_porteria,
14,1402,penalty_fuera,
11,1139,gol_anulado,perdida_de_balon
12,1233,segunda_tarjeta_amarilla_al_jugador,cortar_jugada_de_peligro
10,1052,penalty_parado,fallado
12,1222,segunda_tarjeta_amarilla_al_jugador,agarron_de_camiseta
9,913,tarjeta_roja,mano
11,1118,gol_anulado,volea
10,1055,penalty_parado,palo
4,425,tiro_a_porteria,cabezazo_ocasion_peligrosa
4,414,tiro_a_porteria,tiro_ocasion_peligrosa
3,325,tiro_fuera,cabezazo_ocasion_peligrosa
3,314,tiro_fuera,tiro_ocasion_peligrosa
4,445,tiro_a_porteria,libre_indirecto
3,336,tiro_fuera,volea_ocasion_peligrosa
6,627,tarjeta_amarilla,conducta_antideportiva
7,745,gol,libre_indirecto
9,932,tarjeta_roja,abuso_verbal
3,345,tiro_fuera,libre_indirecto
3,344,tiro_fuera,larguero_ocasion_peligrosa
9,922,tarjeta_roja,agarron_de_camiseta
6,651,tarjeta_amarilla,quitarse_la_camiseta
4,436,tiro_a_porteria,volea_ocasion_peligrosa
3,341,tiro_fuera,poste_ocasion_peligrosa
9,927,tarjeta_roja,conducta_antideportiva
3,321,tiro_fuera,mal_tiro
2,224,falta,obstruccion
9,906,tarjeta_roja,empujo
12,1206,segunda_tarjeta_amarilla_al_jugador,empujo
13,1302,penalty_repetido,
10,1029,penalty_parado,larguero
12,1227,segunda_tarjeta_amarilla_al_jugador,conducta_antideportiva
4,453,tiro_a_porteria,chilena_ocasion_peligrosa
2,217,falta,juego_peligroso
2,235,falta,adelantarse
7,737,gol,de_empujarla
11,1137,gol_anulado,de_empujarla
6,642,tarjeta_amarilla,adelantarse_en_la_barrera
3,353,tiro_fuera,chilena_ocasion_peligrosa
2,205,falta,zancadilla
2,215,falta,agarrar
4,440,tiro_a_porteria,vaselina
3,340,tiro_fuera,vaselina
3,331,tiro_fuera,tiro_fallado
11,1116,gol_anulado,libre_directo
5,509,corner,centro_izquierad
5,508,corner,centro_derecha
5,523,corner,corto_izquierda
5,526,corner,corto_derecha
7,754,gol,taconazo
7,740,gol,vaselina
2,256,falta,mano_del_portero
11,1134,gol_anulado,chilena
11,1154,gol_anulado,taconazo
11,1104,gol_anulado,lejano
9,938,tarjeta_roja,tirarse
