,id,prediction
0,13022,1.0
1,13023,1.0
2,13024,0.0
3,13025,1.0
4,13026,1.0
5,13027,2.0
6,13028,1.0
7,13029,1.0
8,13030,2.0
9,13031,0.0
10,13032,1.0
11,13033,2.0
12,13034,2.0
13,13035,2.0
14,13036,1.0
15,13037,0.0
16,13038,0.0
17,13039,1.0
18,13040,1.0
19,13041,2.0
20,13042,0.0
21,13043,0.0
22,13044,2.0
23,13045,2.0
24,13046,0.0
25,13047,1.0
26,13048,2.0
27,13049,1.0
28,13050,1.0
29,13051,0.0
30,13052,1.0
31,13053,1.0
32,13054,1.0
33,13055,1.0
34,13056,2.0
35,13057,1.0
36,13058,2.0
37,13059,1.0
38,13060,2.0
39,13061,1.0
40,13062,1.0
41,13063,2.0
42,13064,1.0
43,13065,1.0
44,13066,1.0
45,13067,1.0
46,13068,1.0
47,13069,1.0
48,13070,1.0
49,13071,1.0
50,13072,0.0
51,13073,1.0
52,13074,1.0
53,13075,1.0
54,13076,2.0
55,13077,1.0
56,13078,2.0
57,13079,2.0
58,13080,0.0
59,13081,2.0
60,13082,2.0
61,13083,0.0
62,13084,1.0
63,13085,1.0
64,13086,1.0
65,13087,2.0
66,13088,0.0
67,13089,1.0
68,13090,1.0
69,13091,1.0
70,13092,2.0
71,13093,2.0
72,13094,1.0
73,13095,1.0
74,13096,0.0
75,13097,2.0
76,13098,1.0
77,13099,2.0
78,13100,2.0
79,13101,1.0
80,13102,1.0
81,13103,1.0
82,13104,1.0
83,13105,0.0
84,13106,1.0
85,13107,2.0
86,13108,0.0
87,13109,1.0
88,13110,0.0
89,13111,1.0
90,13112,0.0
91,13113,2.0
92,13114,0.0
93,13115,0.0
94,13116,2.0
95,13117,1.0
96,13118,1.0
97,13119,1.0
98,13120,1.0
99,13121,0.0
100,13122,0.0
101,13123,2.0
102,13124,0.0
103,13125,0.0
104,13126,1.0
105,13127,1.0
106,13128,1.0
107,13129,1.0
108,13130,1.0
109,13131,1.0
110,13132,1.0
111,13133,1.0
112,13134,2.0
113,13135,2.0
114,13136,1.0
115,13137,0.0
116,13138,1.0
117,13139,0.0
118,13140,1.0
119,13141,1.0
120,13142,2.0
121,13143,2.0
122,13144,1.0
123,13145,1.0
124,13146,1.0
125,13147,1.0
126,13148,1.0
127,13149,1.0
128,13150,2.0
129,13151,1.0
130,13152,0.0
131,13153,1.0
132,13154,2.0
133,13155,2.0
134,13156,1.0
135,13157,2.0
136,13158,1.0
137,13159,0.0
138,13160,1.0
139,13161,0.0
140,13162,2.0
141,13163,1.0
142,13164,1.0
143,13165,1.0
144,13166,2.0
145,13167,2.0
146,13168,0.0
147,13169,1.0
148,13170,1.0
149,13171,0.0
150,13172,2.0
151,13173,1.0
152,13174,1.0
153,13175,1.0
154,13176,1.0
155,13177,2.0
156,13178,2.0
157,13179,2.0
158,13180,1.0
159,13181,2.0
160,13182,2.0
161,13183,1.0
162,13184,2.0
163,13185,1.0
164,13186,0.0
165,13187,0.0
166,13188,2.0
167,13189,1.0
168,13190,2.0
169,13191,0.0
170,13192,1.0
171,13193,0.0
172,13194,1.0
173,13195,0.0
174,13196,2.0
175,13197,2.0
176,13198,1.0
177,13199,1.0
178,13200,1.0
179,13201,1.0
180,13202,2.0
181,13203,1.0
182,13204,2.0
183,13205,1.0
184,13206,0.0
185,13207,0.0
186,13208,1.0
187,13209,2.0
188,13210,1.0
189,13211,2.0
190,13212,1.0
191,13213,1.0
192,13214,0.0
193,13215,2.0
194,13216,1.0
195,13217,1.0
196,13218,1.0
197,13219,1.0
198,13220,2.0
199,13221,2.0
200,13222,0.0
201,13223,1.0
202,13224,2.0
203,13225,1.0
204,13226,0.0
205,13227,0.0
206,13228,2.0
207,13229,2.0
208,13230,0.0
209,13231,0.0
210,13232,2.0
211,13233,2.0
212,13234,0.0
213,13235,1.0
214,13236,1.0
215,13237,0.0
216,13238,1.0
217,13239,2.0
218,13240,0.0
219,13241,1.0
220,13242,2.0
221,13243,2.0
222,13244,1.0
223,13245,0.0
224,13246,1.0
225,13247,1.0
226,13248,1.0
227,13249,2.0
228,13250,2.0
229,13251,0.0
230,13252,1.0
231,13253,1.0
232,13254,1.0
233,13255,0.0
234,13256,0.0
235,13257,2.0
236,13258,1.0
237,13259,0.0
238,13260,1.0
239,13261,2.0
240,13262,2.0
241,13263,2.0
242,13264,2.0
243,13265,0.0
244,13266,0.0
245,13267,1.0
246,13268,0.0
247,13269,1.0
248,13270,1.0
249,13271,2.0
250,13272,1.0
251,13273,0.0
252,13274,2.0
253,13275,1.0
254,13276,1.0
255,13277,1.0
256,13278,1.0
257,13279,2.0
258,13280,0.0
259,13281,2.0
260,13282,0.0
261,13283,0.0
262,13284,2.0
263,13285,0.0
264,13286,1.0
265,13287,1.0
266,13288,1.0
267,13289,2.0
268,13290,1.0
269,13291,2.0
270,13292,1.0
271,13293,2.0
272,13294,0.0
273,13295,2.0
274,13296,2.0
275,13297,2.0
276,13298,0.0
277,13299,1.0
278,13300,2.0
279,13301,1.0
280,13302,0.0
281,13303,2.0
282,13304,2.0
283,13305,2.0
284,13306,1.0
285,13307,2.0
286,13308,1.0
287,13309,1.0
288,13310,2.0
289,13311,1.0
290,13312,0.0
291,13313,2.0
292,13314,1.0
293,13315,0.0
294,13316,0.0
295,13317,2.0
296,13318,1.0
297,13319,1.0
298,13320,1.0
299,13321,1.0
300,13322,1.0
301,13323,2.0
302,13324,2.0
303,13325,1.0
304,13326,0.0
305,13327,2.0
306,13328,1.0
307,13329,1.0
308,13330,0.0
309,13331,2.0
310,13332,0.0
311,13333,0.0
312,13334,0.0
313,13335,1.0
314,13336,2.0
315,13337,1.0
316,13338,1.0
317,13339,1.0
318,13340,2.0
319,13341,1.0
320,13342,0.0
321,13343,1.0
322,13344,1.0
323,13345,0.0
324,13346,2.0
325,13347,1.0
326,13348,1.0
327,13349,2.0
328,13350,1.0
329,13351,1.0
330,13352,1.0
331,13353,2.0
332,13354,1.0
333,13355,0.0
334,13356,0.0
335,13357,2.0
336,13358,2.0
337,13359,1.0
338,13360,1.0
339,13361,1.0
340,13362,1.0
341,13363,2.0
342,13364,1.0
343,13365,1.0
344,13366,2.0
345,13367,2.0
346,13368,2.0
347,13369,1.0
348,13370,2.0
349,13371,2.0
350,13372,0.0
351,13373,0.0
352,13374,2.0
353,13375,2.0
354,13376,2.0
355,13377,0.0
356,13378,0.0
357,13379,2.0
358,13380,0.0
359,13381,1.0
360,13382,1.0
361,13383,2.0
362,13384,1.0
363,13385,1.0
364,13386,0.0
365,13387,1.0
366,13388,1.0
367,13389,1.0
368,13390,1.0
369,13391,1.0
370,13392,1.0
371,13393,2.0
372,13394,0.0
373,13395,2.0
374,13396,1.0
375,13397,1.0
376,13398,1.0
377,13399,0.0
378,13400,1.0
379,13401,1.0
380,13402,1.0
381,13403,0.0
382,13404,1.0
383,13405,0.0
384,13406,2.0
385,13407,2.0
386,13408,0.0
387,13409,2.0
388,13410,0.0
389,13411,1.0
390,13412,1.0
391,13413,2.0
392,13414,0.0
393,13415,1.0
394,13416,0.0
395,13417,2.0
396,13418,2.0
397,13419,1.0
398,13420,1.0
399,13421,2.0
400,13422,1.0
401,13423,2.0
402,13424,0.0
403,13425,0.0
404,13426,2.0
405,13427,0.0
406,13428,1.0
407,13429,2.0
408,13430,2.0
409,13431,1.0
410,13432,1.0
411,13433,1.0
412,13434,1.0
413,13435,0.0
414,13436,1.0
415,13437,1.0
416,13438,1.0
417,13439,1.0
418,13440,0.0
419,13441,2.0
420,13442,1.0
421,13443,1.0
422,13444,1.0
423,13445,1.0
424,13446,1.0
425,13447,1.0
426,13448,1.0
427,13449,1.0
428,13450,0.0
429,13451,0.0
430,13452,1.0
431,13453,1.0
432,13454,0.0
433,13455,0.0
434,13456,1.0
435,13457,1.0
436,13458,1.0
437,13459,2.0
438,13460,1.0
439,13461,2.0
440,13462,1.0
441,13463,1.0
442,13464,0.0
443,13465,0.0
444,13466,0.0
445,13467,0.0
446,13468,1.0
447,13469,0.0
448,13470,1.0
449,13471,1.0
450,13472,2.0
451,13473,2.0
452,13474,1.0
453,13475,1.0
454,13476,1.0
455,13477,2.0
456,13478,2.0
457,13479,1.0
458,13480,1.0
459,13481,2.0
460,13482,1.0
461,13483,1.0
462,13484,1.0
463,13485,2.0
464,13486,1.0
465,13487,1.0
466,13488,2.0
467,13489,1.0
468,13490,0.0
469,13491,1.0
470,13492,1.0
471,13493,2.0
472,13494,1.0
473,13495,1.0
474,13496,2.0
475,13497,2.0
476,13498,0.0
477,13499,0.0
478,13500,1.0
479,13501,2.0
480,13502,0.0
481,13503,1.0
482,13504,0.0
483,13505,1.0
484,13506,0.0
485,13507,1.0
486,13508,1.0
487,13509,0.0
488,13510,1.0
489,13511,0.0
490,13512,1.0
491,13513,1.0
492,13514,1.0
493,13515,0.0
494,13516,2.0
495,13517,2.0
496,13518,2.0
497,13519,1.0
498,13520,1.0
499,13521,1.0
500,13522,1.0
501,13523,0.0
502,13524,0.0
503,13525,2.0
504,13526,1.0
505,13527,1.0
506,13528,0.0
507,13529,0.0
508,13530,0.0
509,13531,1.0
510,13532,0.0
511,13533,1.0
512,13534,1.0
513,13535,1.0
514,13536,1.0
515,13537,1.0
516,13538,1.0
517,13539,0.0
518,13540,1.0
519,13541,1.0
520,13542,2.0
521,13543,1.0
522,13544,1.0
523,13545,1.0
524,13546,2.0
525,13547,1.0
526,13548,2.0
527,13549,2.0
528,13550,1.0
529,13551,2.0
530,13552,2.0
531,13553,1.0
532,13554,1.0
533,13555,1.0
534,13556,1.0
535,13557,2.0
536,13558,2.0
537,13559,0.0
538,13560,1.0
539,13561,1.0
540,13562,1.0
541,13563,0.0
542,13564,1.0
543,13565,1.0
544,13566,1.0
545,13567,2.0
546,13568,0.0
547,13569,2.0
548,13570,1.0
549,13571,1.0
550,13572,0.0
551,13573,1.0
552,13574,0.0
553,13575,2.0
554,13576,0.0
555,13577,1.0
556,13578,1.0
557,13579,1.0
558,13580,2.0
559,13581,0.0
560,13582,1.0
561,13583,1.0
562,13584,1.0
563,13585,1.0
564,13586,1.0
565,13587,1.0
566,13588,2.0
567,13589,1.0
568,13590,0.0
569,13591,1.0
570,13592,1.0
571,13593,1.0
572,13594,2.0
573,13595,1.0
574,13596,0.0
575,13597,1.0
576,13598,2.0
577,13599,0.0
578,13600,2.0
579,13601,1.0
580,13602,1.0
581,13603,1.0
582,13604,2.0
583,13605,0.0
584,13606,1.0
585,13607,1.0
586,13608,2.0
587,13609,2.0
588,13610,0.0
589,13611,1.0
590,13612,1.0
591,13613,1.0
592,13614,0.0
593,13615,2.0
594,13616,2.0
595,13617,1.0
596,13618,2.0
597,13619,2.0
598,13620,2.0
599,13621,2.0
600,13622,1.0
601,13623,1.0
602,13624,1.0
603,13625,1.0
604,13626,0.0
605,13627,2.0
606,13628,2.0
607,13629,0.0
608,13630,2.0
609,13631,2.0
610,13632,0.0
611,13633,1.0
612,13634,2.0
613,13635,1.0
614,13636,1.0
615,13637,1.0
616,13638,1.0
617,13639,1.0
618,13640,0.0
619,13641,1.0
620,13642,1.0
621,13643,2.0
622,13644,2.0
623,13645,2.0
624,13646,0.0
625,13647,0.0
626,13648,2.0
627,13649,1.0
628,13650,2.0
629,13651,2.0
630,13652,1.0
631,13653,1.0
632,13654,1.0
633,13655,0.0
634,13656,1.0
635,13657,0.0
636,13658,1.0
637,13659,1.0
638,13660,1.0
639,13661,0.0
640,13662,2.0
641,13663,2.0
642,13664,2.0
643,13665,1.0
644,13666,2.0
645,13667,2.0
646,13668,1.0
647,13669,1.0
648,13670,2.0
649,13671,0.0
650,13672,1.0
651,13673,0.0
652,13674,1.0
653,13675,1.0
654,13676,2.0
655,13677,0.0
656,13678,2.0
657,13679,1.0
658,13680,0.0
659,13681,2.0
660,13682,2.0
661,13683,0.0
662,13684,2.0
663,13685,2.0
664,13686,2.0
665,13687,1.0
666,13688,1.0
667,13689,2.0
668,13690,0.0
669,13691,2.0
670,13692,2.0
671,13693,2.0
672,13694,2.0
673,13695,1.0
674,13696,0.0
675,13697,1.0
676,13698,0.0
677,13699,2.0
678,13700,0.0
679,13701,2.0
680,13702,1.0
681,13703,1.0
682,13704,1.0
683,13705,2.0
684,13706,0.0
685,13707,2.0
686,13708,1.0
687,13709,1.0
688,13710,1.0
689,13711,2.0
690,13712,1.0
691,13713,2.0
692,13714,1.0
693,13715,0.0
694,13716,2.0
695,13717,1.0
696,13718,1.0
697,13719,0.0
698,13720,1.0
699,13721,0.0
700,13722,0.0
701,13723,1.0
702,13724,2.0
703,13725,1.0
704,13726,1.0
705,13727,2.0
706,13728,2.0
707,13729,1.0
708,13730,0.0
709,13731,1.0
710,13732,0.0
711,13733,1.0
712,13734,2.0
713,13735,1.0
714,13736,1.0
715,13737,2.0
716,13738,2.0
717,13739,2.0
718,13740,0.0
719,13741,2.0
720,13742,1.0
721,13743,2.0
722,13744,1.0
723,13745,1.0
724,13746,1.0
725,13747,0.0
726,13748,1.0
727,13749,0.0
728,13750,2.0
729,13751,1.0
730,13752,1.0
731,13753,0.0
732,13754,2.0
733,13755,0.0
734,13756,0.0
735,13757,1.0
736,13758,1.0
737,13759,1.0
738,13760,1.0
739,13761,1.0
740,13762,1.0
741,13763,1.0
742,13764,1.0
743,13765,2.0
744,13766,2.0
745,13767,1.0
746,13768,2.0
747,13769,0.0
748,13770,1.0
749,13771,1.0
750,13772,0.0
751,13773,2.0
752,13774,1.0
753,13775,1.0
754,13776,2.0
755,13777,2.0
756,13778,0.0
757,13779,0.0
758,13780,1.0
759,13781,2.0
760,13782,2.0
761,13783,0.0
762,13784,0.0
763,13785,2.0
764,13786,1.0
765,13787,0.0
766,13788,2.0
767,13789,0.0
768,13790,1.0
769,13791,1.0
770,13792,2.0
771,13793,0.0
772,13794,0.0
773,13795,1.0
774,13796,2.0
775,13797,0.0
776,13798,2.0
777,13799,2.0
778,13800,1.0
779,13801,1.0
780,13802,1.0
781,13803,2.0
782,13804,0.0
783,13805,1.0
784,13806,2.0
785,13807,2.0
786,13808,1.0
787,13809,1.0
788,13810,2.0
789,13811,0.0
790,13812,1.0
791,13813,1.0
792,13814,2.0
793,13815,1.0
794,13816,1.0
795,13817,1.0
796,13818,1.0
797,13819,1.0
798,13820,1.0
799,13821,1.0
800,13822,1.0
801,13823,2.0
802,13824,1.0
803,13825,0.0
804,13826,1.0
805,13827,0.0
806,13828,0.0
807,13829,0.0
808,13830,2.0
809,13831,2.0
810,13832,1.0
811,13833,2.0
812,13834,2.0
813,13835,2.0
814,13836,2.0
815,13837,2.0
816,13838,1.0
817,13839,2.0
818,13840,1.0
819,13841,2.0
820,13842,0.0
821,13843,0.0
822,13844,1.0
823,13845,2.0
824,13846,1.0
825,13847,0.0
826,13848,1.0
827,13849,1.0
828,13850,2.0
829,13851,0.0
830,13852,0.0
831,13853,1.0
832,13854,1.0
833,13855,1.0
834,13856,0.0
835,13857,1.0
836,13858,2.0
837,13859,2.0
838,13860,0.0
839,13861,1.0
840,13862,1.0
841,13863,1.0
842,13864,0.0
843,13865,1.0
844,13866,0.0
845,13867,0.0
846,13868,1.0
847,13869,2.0
848,13870,2.0
849,13871,2.0
850,13872,0.0
851,13873,1.0
852,13874,1.0
853,13875,1.0
854,13876,1.0
855,13877,0.0
856,13878,1.0
857,13879,2.0
858,13880,1.0
859,13881,0.0
860,13882,1.0
861,13883,1.0
862,13884,1.0
863,13885,1.0
864,13886,1.0
865,13887,1.0
866,13888,2.0
867,13889,0.0
868,13890,1.0
869,13891,1.0
870,13892,1.0
871,13893,1.0
872,13894,2.0
873,13895,1.0
874,13896,0.0
875,13897,0.0
876,13898,1.0
877,13899,1.0
878,13900,1.0
879,13901,0.0
880,13902,1.0
881,13903,1.0
882,13904,0.0
883,13905,1.0
884,13906,2.0
885,13907,1.0
886,13908,2.0
887,13909,2.0
888,13910,1.0
889,13911,1.0
890,13912,1.0
891,13913,2.0
892,13914,2.0
893,13915,2.0
894,13916,1.0
895,13917,0.0
896,13918,1.0
897,13919,0.0
898,13920,2.0
899,13921,0.0
900,13922,2.0
901,13923,2.0
902,13924,1.0
903,13925,2.0
904,13926,2.0
905,13927,0.0
906,13928,1.0
907,13929,1.0
908,13930,0.0
909,13931,1.0
910,13932,0.0
911,13933,1.0
912,13934,1.0
913,13935,1.0
914,13936,1.0
915,13937,0.0
916,13938,1.0
917,13939,1.0
918,13940,2.0
919,13941,1.0
920,13942,1.0
921,13943,1.0
922,13944,1.0
923,13945,1.0
924,13946,1.0
925,13947,0.0
926,13948,1.0
927,13949,2.0
928,13950,2.0
929,13951,2.0
930,13952,1.0
931,13953,1.0
932,13954,1.0
933,13955,0.0
934,13956,0.0
935,13957,2.0
936,13958,1.0
937,13959,1.0
938,13960,1.0
939,13961,2.0
940,13962,1.0
941,13963,0.0
942,13964,2.0
943,13965,1.0
944,13966,1.0
945,13967,1.0
946,13968,2.0
947,13969,0.0
948,13970,0.0
949,13971,1.0
950,13972,1.0
951,13973,1.0
952,13974,0.0
953,13975,0.0
954,13976,1.0
955,13977,0.0
956,13978,2.0
957,13979,1.0
958,13980,1.0
959,13981,2.0
960,13982,1.0
961,13983,1.0
962,13984,1.0
963,13985,0.0
964,13986,1.0
965,13987,1.0
966,13988,1.0
967,13989,1.0
968,13990,1.0
969,13991,1.0
970,13992,1.0
971,13993,1.0
972,13994,0.0
973,13995,2.0
974,13996,0.0
975,13997,2.0
976,13998,0.0
977,13999,0.0
978,14000,0.0
979,14001,1.0
980,14002,1.0
981,14003,2.0
982,14004,2.0
983,14005,1.0
984,14006,1.0
985,14007,2.0
986,14008,2.0
987,14009,0.0
988,14010,1.0
989,14011,0.0
990,14012,2.0
991,14013,0.0
992,14014,0.0
993,14015,0.0
994,14016,0.0
995,14017,0.0
996,14018,2.0
997,14019,2.0
998,14020,1.0
999,14021,1.0
1000,14022,1.0
1001,14023,1.0
1002,14024,1.0
1003,14025,1.0
1004,14026,2.0
1005,14027,2.0
1006,14028,2.0
1007,14029,0.0
1008,14030,1.0
1009,14031,1.0
1010,14032,2.0
1011,14033,1.0
1012,14034,1.0
1013,14035,1.0
1014,14036,2.0
1015,14037,1.0
1016,14038,0.0
1017,14039,1.0
1018,14040,1.0
1019,14041,1.0
1020,14042,2.0
1021,14043,2.0
1022,14044,0.0
1023,14045,1.0
1024,14046,0.0
1025,14047,2.0
1026,14048,1.0
1027,14049,1.0
1028,14050,1.0
1029,14051,2.0
1030,14052,1.0
1031,14053,2.0
1032,14054,1.0
1033,14055,0.0
1034,14056,2.0
1035,14057,2.0
1036,14058,2.0
1037,14059,1.0
1038,14060,0.0
1039,14061,2.0
1040,14062,1.0
1041,14063,0.0
1042,14064,1.0
1043,14065,0.0
1044,14066,0.0
1045,14067,0.0
1046,14068,1.0
1047,14069,2.0
1048,14070,2.0
1049,14071,2.0
1050,14072,0.0
1051,14073,2.0
1052,14074,1.0
1053,14075,1.0
1054,14076,0.0
1055,14077,1.0
1056,14078,1.0
1057,14079,1.0
1058,14080,0.0
1059,14081,2.0
1060,14082,2.0
1061,14083,2.0
1062,14084,0.0
1063,14085,0.0
1064,14086,1.0
1065,14087,1.0
1066,14088,1.0
1067,14089,1.0
1068,14090,1.0
1069,14091,2.0
1070,14092,1.0
1071,14093,2.0
1072,14094,1.0
1073,14095,2.0
1074,14096,1.0
1075,14097,1.0
1076,14098,2.0
1077,14099,1.0
1078,14100,2.0
1079,14101,2.0
1080,14102,1.0
1081,14103,2.0
1082,14104,2.0
1083,14105,1.0
1084,14106,0.0
1085,14107,2.0
1086,14108,1.0
1087,14109,1.0
1088,14110,2.0
1089,14111,1.0
1090,14112,2.0
1091,14113,1.0
1092,14114,1.0
1093,14115,1.0
1094,14116,1.0
1095,14117,0.0
1096,14118,1.0
1097,14119,0.0
1098,14120,1.0
1099,14121,0.0
1100,14122,1.0
1101,14123,2.0
1102,14124,1.0
1103,14125,1.0
1104,14126,2.0
1105,14127,2.0
1106,14128,2.0
1107,14129,1.0
1108,14130,1.0
1109,14131,1.0
1110,14132,1.0
1111,14133,1.0
1112,14134,1.0
1113,14135,2.0
1114,14136,1.0
1115,14137,1.0
1116,14138,2.0
1117,14139,1.0
1118,14140,1.0
1119,14141,1.0
1120,14142,1.0
1121,14143,1.0
1122,14144,0.0
1123,14145,2.0
1124,14146,1.0
1125,14147,2.0
1126,14148,1.0
1127,14149,1.0
1128,14150,0.0
1129,14151,1.0
1130,14152,1.0
1131,14153,1.0
1132,14154,2.0
1133,14155,2.0
1134,14156,2.0
1135,14157,2.0
1136,14158,1.0
1137,14159,1.0
1138,14160,2.0
1139,14161,2.0
1140,14162,0.0
1141,14163,1.0
1142,14164,1.0
1143,14165,1.0
1144,14166,1.0
1145,14167,1.0
1146,14168,0.0
1147,14169,1.0
1148,14170,1.0
1149,14171,2.0
1150,14172,1.0
1151,14173,1.0
1152,14174,0.0
1153,14175,0.0
1154,14176,0.0
1155,14177,2.0
1156,14178,2.0
1157,14179,2.0
1158,14180,1.0
1159,14181,1.0
1160,14182,2.0
1161,14183,0.0
